!!!GENERATED BY CP2KD.CP2K
!!!{{CALC_ID}}
&GLOBAL
  EXTENDED_FFT_LENGTHS 
  PRINT_LEVEL {{PRINT_LEVEL}}
  PROJECT_NAME {{PROJECT_NAME}} 
  RUN_TYPE ENERGY_FORCE 
&END GLOBAL
&FORCE_EVAL
  METHOD Quickstep
  STRESS_TENSOR ANALYTICAL
  &SUBSYS
    &CELL
      PERIODIC {{CELL_PERIODIC}}
      ABC {{ABC}}
      &CELL_REF
      ABC {{ABC}}
      &END CELL_REF
    &END CELL
    &TOPOLOGY
      COORD_FILE_FORMAT XYZ
      COORD_FILE_NAME {{COORD_FILE_NAME}}
    &END TOPOLOGY
    {{KINDSECTION}}
  &END SUBSYS
  &DFT
    POTENTIAL_FILE_NAME {{POTENTIAL_FILE_NAME}} 
    SURFACE_DIPOLE_CORRECTION {{SURFACE_DIPOLE_CORRECTION}} 
    {{SURF_DIP_DIR_ENABLE_AND_DIRECTION}} 
    {{SURF_DIP_SWITCH}} 
    UKS {{UKS}} 
    CHARGE {{CHARGE}}
    MULTIPLICITY {{MULTIPLICITY}} 
    BASIS_SET_FILE_NAME {{BASIS_SET_FILE_NAME}} 
    &MGRID
      NGRIDS {{NGRIDS}}
      CUTOFF {{CUTOFF}} 
    &END MGRID
    &QS
      EXTRAPOLATION USE_GUESS
      EPS_DEFAULT {{EPS_DEFAULT}} 
    &END QS
    &XC
      &VDW_POTENTIAL
        POTENTIAL_TYPE PAIR_POTENTIAL
        &PAIR_POTENTIAL
          REFERENCE_FUNCTIONAL {{REFERENCE_FUNCTIONAL}} 
          PARAMETER_FILE_NAME {{PARAMETER_FILE_NAME}} 
        &END PAIR_POTENTIAL
      &END VDW_POTENTIAL
      &XC_FUNCTIONAL PBE
      &END XC_FUNCTIONAL
    &END XC
    {{KPOINTS_SECTION}}
    {{POISSONBLOCK}}
    &SCF
      SCF_GUESS   RESTART
      MAX_SCF     {{MAX_SCF}}
      EPS_SCF     {{EPS_SCF}} 
      &OT  {{OT}} 
        PRECONDITIONER {{OT_PRECONDITIONER}}
      &END OT
      &OUTER_SCF  {{OUTER_SCF}} 
        OPTIMIZER  {{SCF_OPTIMIZER}} 
        EPS_SCF     {{EPS_SCF}}
        MAX_SCF  {{OUTER_SCF_MAX_SCF}} 
      &END OUTER_SCF
      {{SMEARSECTION}}
      &PRINT
        &RESTART LOW 
          BACKUP_COPIES  1
          &EACH
            JUST_ENERGY 1
            GEO_OPT 1
            QS_SCF 20
          &END EACH
        &END RESTART
      &END PRINT
    &END SCF
  &END DFT
  &PRINT
    &FORCES ON
    &END FORCES
    &STRESS_TENSOR ON
    &END STRESS_TENSOR
  &END PRINT
&END FORCE_EVAL

